name,mail
Acqui,frlemut@libero.it
Alessandria COVID Free,fracca7766@gmail.com
Alessandria Cardio-Neuro,fracca7766@gmail.com
Alessandria COVID,fracca7766@gmail.com
Alessandria Salus,visettienrico@gmail.com
Asti,abianchi@asl.at.it
Biella,claudio.pissaia@aslbi.piemonte.it
Borgomanero,davide.colombo@asl.novara.it
Carmagnola,fiore.gilberto@aslto5.piemonte.it
Casale,frlemut@libero.it
Cellini,giugorg1@gmail.com
Chieri ,alemastroianni@icloud.com
Chivasso ,ecastenetto@aslto4.piemonte.it
Ciriè,groberti@aslto4.piemonte.it
CTO,mberardino@cittadellasalute.to.it
CTO-PS,mberardino@cittadellasalute.to.it
Cuneo Carle,locatelli.a@ospedale.cuneo.it
Cuneo S. Croce Gen,locatelli.a@ospedale.cuneo.it
Cuneo Cardio,locatelli.a@ospedale.cuneo.it
Domodossola,carlo.maestrone@aslvco.it
Eporediese clinica,vanessa.repetto@clinicaeporediese.it
Gradenigo,chiara.ferrari@humanitas.it
Ivrea ,bscapino@aslto4.piemonte.it
Maria Vittoria,emilpaolo.manno@aslcittaditorino.it
Martini,mauro.navarra1971@gmail.com
Mauriziano Ria ,vsegala@mauriziano.it
Mauriziano Ria II covid,gbuono@mauriziano.it
Mauriziano Ria SO covid,gbuono@mauriziano.it
Mauriziano Ria CV ,gbuono@mauriziano.it
Molinette Cardio,luca.brazzi@unito.it
Molinette Trapianti,rbalagna@cittadellasalute.to.it
Molinette Neuroria,rbalagna@cittadellasalute.to.it
Molinette-CAR,luca.brazzi@unito.it
Molinette PSAR,luca.brazzi@unito.it
Molinette RIA-COVID II,luca.brazzi@unito.it
Moncalieri,fiore.gilberto@aslto5.piemonte.it
Mondovì,ilaria.blangetti@aslcn1.it
Novara Ria I   covid +,dellacorte.f@gmail.com
Novara Ria II  covid -,dellacorte.f@gmail.com
Novara Ria cardioch.,dellacorte.f@gmail.com
Novara Ria neuroch.,dellacorte.f@gmail.com
Novi,frlemut@libero.it
Oftalmico,alessandro.deprado@aslcittaditorino.it
OIRM Generale,mberardino@cittadellasalute.to.it
OIRM Cardio,mberardino@cittadellasalute.to.it
Pinerolo ,mpastorelli@aslto3.piemonte.it
Rivoli,mgrio@aslto3.piemonte.it
S.Anna,mberardino@cittadellasalute.to.it
Saluzzo ,nicola.launaro@gmail.com
San G. Bosco,sergio.livigni@gmail.com
San Luigi ,pietro.caironi@unito.it
Savigliano,ugo.zummo@aslcn1.it
Tortona,frlemut@libero.it
Villa Pia,amorteo@gvmnet.it
Verbania ,carlo.maestrone@aslvco.it
Vercelli,carlo.olivieri@aslvc.piemonte.it
Verduno,eravera@aslcn2.it
